arrow==1.0.3
attrs==20.3.0
coverage==5.5
decorator==4.4.2
docopt==0.6.2
h5py==3.2.1
more-itertools==8.7.0
mosaik.CSV-SemVer==1.0.4rc20210321232947
mosaik.HDF5-SemVer==0.4.0rc20201203044044
mosaik.PyPower-SemVer==0.7.3rc20201207172046
mosaik.Web-SemVer==0.2.3rc20200423014550
mosaik.API-SemVer==2.4.2rc20201202043229
mosaik.Core-SemVer==2.5.3rc20201202041423
mosaik.HouseholdSim-SemVer==2.0.4rc20200423014529
mosaik.SimConfig==0.1.0rc20200420160002
networkx==2.5
numpy==1.20.1
packaging==20.9
pip==21.0.1
pluggy==0.13.1
py==1.10.0
pyparsing==2.4.7
PYPOWER==5.1.15
pytest==6.2.2
pytest-cov==2.11.1
python-dateutil==2.8.1
scipy==1.6.2
setuptools==54.2.0
simpy==4.0.1
SimPy.IO-SemVer==0.2.4rc20201202024836
six==1.15.0
wcwidth==0.2.5
wheel==0.36.2
xlrd==2.0.1
